^C:\USERS\USER\SOURCE\REPOS\MLPTEST\MLP.CPP|C:\USERS\USER\SOURCE\REPOS\MLPTEST\MLPAPI.CPP
C:\USERS\USER\SOURCE\REPOS\MLPTEST\DEBUG\VC141.PDB
C:\USERS\USER\SOURCE\REPOS\MLPTEST\DEBUG\VC141.IDB
C:\USERS\USER\SOURCE\REPOS\MLPTEST\DEBUG\MLP.OBJ
C:\USERS\USER\SOURCE\REPOS\MLPTEST\DEBUG\MLPAPI.OBJ
^C:\USERS\USER\SOURCE\REPOS\MLPTEST\MLPAPI.CPP
C:\USERS\USER\SOURCE\REPOS\MLPTEST\DEBUG\VC141.PDB
^C:\USERS\USER\SOURCE\REPOS\MLPTEST\MLP.CPP
C:\USERS\USER\SOURCE\REPOS\MLPTEST\DEBUG\VC141.PDB
